E:\vvss\Docs\Laborator1\3-ProiectAgenda\ProiectAgenda\src\main\java\agenda\gui\window\MainWindow.java
E:\vvss\Docs\Laborator1\3-ProiectAgenda\ProiectAgenda\src\main\java\agenda\model\base\User.java
E:\vvss\Docs\Laborator1\3-ProiectAgenda\ProiectAgenda\src\main\java\agenda\model\repository\classes\RepositoryActivityFile.java
E:\vvss\Docs\Laborator1\3-ProiectAgenda\ProiectAgenda\src\main\java\agenda\model\repository\interfaces\RepositoryUser.java
E:\vvss\Docs\Laborator1\3-ProiectAgenda\ProiectAgenda\src\main\java\agenda\gui\models\TableModelContact.java
E:\vvss\Docs\Laborator1\3-ProiectAgenda\ProiectAgenda\src\main\java\agenda\gui\window\LoginWindow.java
E:\vvss\Docs\Laborator1\3-ProiectAgenda\ProiectAgenda\src\main\java\agenda\model\repository\classes\RepositoryUserMock.java
E:\vvss\Docs\Laborator1\3-ProiectAgenda\ProiectAgenda\src\main\java\agenda\model\repository\interfaces\RepositoryActivity.java
E:\vvss\Docs\Laborator1\3-ProiectAgenda\ProiectAgenda\src\main\java\agenda\model\repository\classes\RepositoryActivityMock.java
E:\vvss\Docs\Laborator1\3-ProiectAgenda\ProiectAgenda\src\main\java\agenda\utils\Constants.java
E:\vvss\Docs\Laborator1\3-ProiectAgenda\ProiectAgenda\src\main\java\agenda\model\repository\classes\RepositoryUserFile.java
E:\vvss\Docs\Laborator1\3-ProiectAgenda\ProiectAgenda\src\main\java\agenda\gui\models\TableModelActivity.java
E:\vvss\Docs\Laborator1\3-ProiectAgenda\ProiectAgenda\src\main\java\agenda\model\base\Activity.java
E:\vvss\Docs\Laborator1\3-ProiectAgenda\ProiectAgenda\src\main\java\agenda\exceptions\InvalidFormatException.java
E:\vvss\Docs\Laborator1\3-ProiectAgenda\ProiectAgenda\src\main\java\agenda\model\repository\classes\RepositoryContactFile.java
E:\vvss\Docs\Laborator1\3-ProiectAgenda\ProiectAgenda\src\main\java\agenda\model\repository\classes\RepositoryContactMock.java
E:\vvss\Docs\Laborator1\3-ProiectAgenda\ProiectAgenda\src\main\java\agenda\model\base\Contact.java
E:\vvss\Docs\Laborator1\3-ProiectAgenda\ProiectAgenda\src\main\java\agenda\startApp\MainClass.java
E:\vvss\Docs\Laborator1\3-ProiectAgenda\ProiectAgenda\src\main\java\agenda\model\repository\interfaces\RepositoryContact.java
E:\vvss\Docs\Laborator1\3-ProiectAgenda\ProiectAgenda\src\main\java\agenda\model\validator\Validate.java
